\relax 
\providecommand\hyper@newdestlabel[2]{}
\providecommand\HyperFirstAtBeginDocument{\AtBeginDocument}
\HyperFirstAtBeginDocument{\ifx\hyper@anchor\@undefined
\global\let\oldcontentsline\contentsline
\gdef\contentsline#1#2#3#4{\oldcontentsline{#1}{#2}{#3}}
\global\let\oldnewlabel\newlabel
\gdef\newlabel#1#2{\newlabelxx{#1}#2}
\gdef\newlabelxx#1#2#3#4#5#6{\oldnewlabel{#1}{{#2}{#3}}}
\AtEndDocument{\ifx\hyper@anchor\@undefined
\let\contentsline\oldcontentsline
\let\newlabel\oldnewlabel
\fi}
\fi}
\global\let\hyper@last\relax 
\gdef\HyperFirstAtBeginDocument#1{#1}
\providecommand\HyField@AuxAddToFields[1]{}
\providecommand\HyField@AuxAddToCoFields[2]{}
\providecommand*\new@tpo@label[2]{}
\bbl@cs{beforestart}
\catcode `"\active 
\babel@aux{russian}{}
\@writefile{nav}{\headcommand {\slideentry {0}{0}{1}{1/1}{}{0}}}
\@writefile{nav}{\headcommand {\beamer@framepages {1}{1}}}
\@writefile{snm}{\beamer@slide {eq1}{2}}
\newlabel{eq1}{{1}{2}{}{Doc-Start}{}}
\@writefile{snm}{\beamer@slide {eq2}{2}}
\newlabel{eq2}{{2}{2}{}{Doc-Start}{}}
\@writefile{nav}{\headcommand {\slideentry {0}{0}{2}{2/2}{}{0}}}
\@writefile{nav}{\headcommand {\beamer@framepages {2}{2}}}
\@writefile{snm}{\beamer@slide {eq3}{3}}
\newlabel{eq3}{{3}{3}{}{Doc-Start}{}}
\@writefile{snm}{\beamer@slide {eq4}{3}}
\newlabel{eq4}{{4}{3}{}{Doc-Start}{}}
\@writefile{snm}{\beamer@slide {eq5}{3}}
\newlabel{eq5}{{5}{3}{}{Doc-Start}{}}
\@writefile{nav}{\headcommand {\slideentry {0}{0}{3}{3/3}{}{0}}}
\@writefile{nav}{\headcommand {\beamer@framepages {3}{3}}}
\@writefile{nav}{\headcommand {\slideentry {0}{0}{4}{4/4}{}{0}}}
\@writefile{nav}{\headcommand {\beamer@framepages {4}{4}}}
\@writefile{snm}{\beamer@slide {eq6}{5}}
\newlabel{eq6}{{5}{5}{}{Doc-Start}{}}
\@writefile{snm}{\beamer@slide {eq7}{5}}
\newlabel{eq7}{{6}{5}{}{Doc-Start}{}}
\@writefile{snm}{\beamer@slide {eq8}{5}}
\newlabel{eq8}{{7}{5}{}{Doc-Start}{}}
\@writefile{nav}{\headcommand {\slideentry {0}{0}{5}{5/5}{}{0}}}
\@writefile{nav}{\headcommand {\beamer@framepages {5}{5}}}
\providecommand*\caption@xref[2]{\@setref\relax\@undefined{#1}}
\newlabel{tab:table1}{{\caption@xref {tab:table1}{ on input line 199}}{6}{}{Doc-Start}{}}
\@writefile{snm}{\beamer@slide {tab:table1}{6}}
\@writefile{nav}{\headcommand {\slideentry {0}{0}{6}{6/6}{}{0}}}
\@writefile{nav}{\headcommand {\beamer@framepages {6}{6}}}
\newlabel{ris:fig1}{{1}{7}{}{Doc-Start}{}}
\@writefile{snm}{\beamer@slide {ris:fig1}{7}}
\newlabel{ris:fig2}{{2}{7}{}{Doc-Start}{}}
\@writefile{snm}{\beamer@slide {ris:fig2}{7}}
\newlabel{ris:fig3}{{3}{7}{}{Doc-Start}{}}
\@writefile{snm}{\beamer@slide {ris:fig3}{7}}
\newlabel{ris:fig4}{{4}{7}{}{Doc-Start}{}}
\@writefile{snm}{\beamer@slide {ris:fig4}{7}}
\@writefile{nav}{\headcommand {\slideentry {0}{0}{7}{7/7}{}{0}}}
\@writefile{nav}{\headcommand {\beamer@framepages {7}{7}}}
\newlabel{ris:fig5}{{5}{8}{}{Doc-Start}{}}
\@writefile{snm}{\beamer@slide {ris:fig5}{8}}
\newlabel{ris:fig6}{{6}{8}{}{Doc-Start}{}}
\@writefile{snm}{\beamer@slide {ris:fig6}{8}}
\newlabel{ris:fig7}{{7}{8}{}{Doc-Start}{}}
\@writefile{snm}{\beamer@slide {ris:fig7}{8}}
\newlabel{ris:fig8}{{8}{8}{}{Doc-Start}{}}
\@writefile{snm}{\beamer@slide {ris:fig8}{8}}
\@writefile{nav}{\headcommand {\slideentry {0}{0}{8}{8/8}{}{0}}}
\@writefile{nav}{\headcommand {\beamer@framepages {8}{8}}}
\newlabel{tab:table2}{{\caption@xref {tab:table2}{ on input line 285}}{9}{}{Doc-Start}{}}
\@writefile{snm}{\beamer@slide {tab:table2}{9}}
\@writefile{nav}{\headcommand {\slideentry {0}{0}{9}{9/9}{}{0}}}
\@writefile{nav}{\headcommand {\beamer@framepages {9}{9}}}
\newlabel{ris:fig9}{{9}{10}{}{Doc-Start}{}}
\@writefile{snm}{\beamer@slide {ris:fig9}{10}}
\newlabel{ris:fig10}{{10}{10}{}{Doc-Start}{}}
\@writefile{snm}{\beamer@slide {ris:fig10}{10}}
\newlabel{ris:fig11}{{11}{10}{}{Doc-Start}{}}
\@writefile{snm}{\beamer@slide {ris:fig11}{10}}
\newlabel{ris:fig12}{{12}{10}{}{Doc-Start}{}}
\@writefile{snm}{\beamer@slide {ris:fig12}{10}}
\@writefile{nav}{\headcommand {\slideentry {0}{0}{10}{10/10}{}{0}}}
\@writefile{nav}{\headcommand {\beamer@framepages {10}{10}}}
\newlabel{ris:fig13}{{13}{11}{}{Doc-Start}{}}
\@writefile{snm}{\beamer@slide {ris:fig13}{11}}
\newlabel{ris:fig14}{{14}{11}{}{Doc-Start}{}}
\@writefile{snm}{\beamer@slide {ris:fig14}{11}}
\newlabel{ris:fig15}{{15}{11}{}{Doc-Start}{}}
\@writefile{snm}{\beamer@slide {ris:fig15}{11}}
\newlabel{ris:fig16}{{16}{11}{}{Doc-Start}{}}
\@writefile{snm}{\beamer@slide {ris:fig16}{11}}
\@writefile{nav}{\headcommand {\slideentry {0}{0}{11}{11/11}{}{0}}}
\@writefile{nav}{\headcommand {\beamer@framepages {11}{11}}}
\newlabel{tab:table3}{{\caption@xref {tab:table3}{ on input line 371}}{12}{}{Doc-Start}{}}
\@writefile{snm}{\beamer@slide {tab:table3}{12}}
\@writefile{nav}{\headcommand {\slideentry {0}{0}{12}{12/12}{}{0}}}
\@writefile{nav}{\headcommand {\beamer@framepages {12}{12}}}
\newlabel{ris:fig17}{{17}{13}{}{Doc-Start}{}}
\@writefile{snm}{\beamer@slide {ris:fig17}{13}}
\newlabel{ris:fig18}{{18}{13}{}{Doc-Start}{}}
\@writefile{snm}{\beamer@slide {ris:fig18}{13}}
\newlabel{ris:fig19}{{19}{13}{}{Doc-Start}{}}
\@writefile{snm}{\beamer@slide {ris:fig19}{13}}
\newlabel{ris:fig20}{{20}{13}{}{Doc-Start}{}}
\@writefile{snm}{\beamer@slide {ris:fig20}{13}}
\@writefile{nav}{\headcommand {\slideentry {0}{0}{13}{13/13}{}{0}}}
\@writefile{nav}{\headcommand {\beamer@framepages {13}{13}}}
\newlabel{ris:fig21}{{21}{14}{}{Doc-Start}{}}
\@writefile{snm}{\beamer@slide {ris:fig21}{14}}
\newlabel{ris:fig22}{{22}{14}{}{Doc-Start}{}}
\@writefile{snm}{\beamer@slide {ris:fig22}{14}}
\newlabel{ris:fig23}{{23}{14}{}{Doc-Start}{}}
\@writefile{snm}{\beamer@slide {ris:fig23}{14}}
\newlabel{ris:fig24}{{24}{14}{}{Doc-Start}{}}
\@writefile{snm}{\beamer@slide {ris:fig24}{14}}
\@writefile{nav}{\headcommand {\slideentry {0}{0}{14}{14/14}{}{0}}}
\@writefile{nav}{\headcommand {\beamer@framepages {14}{14}}}
\newlabel{tab:table4}{{\caption@xref {tab:table4}{ on input line 457}}{15}{}{Doc-Start}{}}
\@writefile{snm}{\beamer@slide {tab:table4}{15}}
\@writefile{nav}{\headcommand {\slideentry {0}{0}{15}{15/15}{}{0}}}
\@writefile{nav}{\headcommand {\beamer@framepages {15}{15}}}
\newlabel{ris:fig25}{{25}{16}{}{Doc-Start}{}}
\@writefile{snm}{\beamer@slide {ris:fig25}{16}}
\newlabel{ris:fig26}{{26}{16}{}{Doc-Start}{}}
\@writefile{snm}{\beamer@slide {ris:fig26}{16}}
\newlabel{ris:fig27}{{27}{16}{}{Doc-Start}{}}
\@writefile{snm}{\beamer@slide {ris:fig27}{16}}
\newlabel{ris:fig28}{{28}{16}{}{Doc-Start}{}}
\@writefile{snm}{\beamer@slide {ris:fig28}{16}}
\@writefile{nav}{\headcommand {\slideentry {0}{0}{16}{16/16}{}{0}}}
\@writefile{nav}{\headcommand {\beamer@framepages {16}{16}}}
\newlabel{ris:fig29}{{29}{17}{}{Doc-Start}{}}
\@writefile{snm}{\beamer@slide {ris:fig29}{17}}
\newlabel{ris:fig30}{{30}{17}{}{Doc-Start}{}}
\@writefile{snm}{\beamer@slide {ris:fig30}{17}}
\newlabel{ris:fig31}{{31}{17}{}{Doc-Start}{}}
\@writefile{snm}{\beamer@slide {ris:fig31}{17}}
\newlabel{ris:fig32}{{32}{17}{}{Doc-Start}{}}
\@writefile{snm}{\beamer@slide {ris:fig32}{17}}
\@writefile{nav}{\headcommand {\slideentry {0}{0}{17}{17/17}{}{0}}}
\@writefile{nav}{\headcommand {\beamer@framepages {17}{17}}}
\@writefile{nav}{\headcommand {\slideentry {0}{0}{18}{18/18}{}{0}}}
\@writefile{nav}{\headcommand {\beamer@framepages {18}{18}}}
\@writefile{nav}{\headcommand {\slideentry {0}{0}{19}{19/19}{}{0}}}
\@writefile{nav}{\headcommand {\beamer@framepages {19}{19}}}
\@writefile{nav}{\headcommand {\slideentry {0}{0}{20}{20/20}{}{0}}}
\@writefile{nav}{\headcommand {\beamer@framepages {20}{20}}}
\@writefile{nav}{\headcommand {\slideentry {0}{0}{21}{21/21}{}{0}}}
\@writefile{nav}{\headcommand {\beamer@framepages {21}{21}}}
\@writefile{nav}{\headcommand {\beamer@partpages {1}{21}}}
\@writefile{nav}{\headcommand {\beamer@subsectionpages {1}{21}}}
\@writefile{nav}{\headcommand {\beamer@sectionpages {1}{21}}}
\@writefile{nav}{\headcommand {\beamer@documentpages {21}}}
\@writefile{nav}{\headcommand {\gdef \inserttotalframenumber {21}}}
